{
"Actor": {
  "types": ["character"],
  "character": {
    "biography": "",
    "level": {
      "value": 8,
      "min": 3,
      "max": 72
    },
    "essence": {
      "value": 4,
      "min": 1,
      "max": 24
    },
    "destiny": {
      "value": 2,
      "min": 1,
      "max": 24
    },
    "attributes": {}
  }
},
"Item": {
  "types": ["item"],
  "item": {
    "description": "",
    "quantity": 1,
    "weight": 0,
    "attributes": {}
  }
}
}